<?xml version="1.0" encoding="utf-8"?>
<!-- Generator: Adobe Illustrator 19.2.1, SVG Export Plug-In . SVG Version: 6.00 Build 0)  -->
<svg version="1.1" id="Layer_1" xmlns="http://www.w3.org/2000/svg" xmlns:xlink="http://www.w3.org/1999/xlink" x="0px" y="0px"
	 width="22px" height="14px" viewBox="0 0 22 14" style="enable-background:new 0 0 22 14;" xml:space="preserve">
<style type="text/css">
	.st0{fill:#AAB8C2;}
</style>
<path class="st0" d="M20.9,7.4c-0.2-0.3-0.5-0.5-0.8-0.5h-2.1V2.2c0-0.7-0.5-1.2-1.2-1.2h-6.8C9.5,1,8.9,1.5,8.9,2.2
	s0.5,1.2,1.2,1.2h5.3c0.2,0,0.3,0.1,0.3,0.3v3.2h-2.1c-0.3,0-0.6,0.2-0.8,0.5c-0.2,0.3-0.1,0.7,0.1,0.9l3.2,4.4
	c0.2,0.2,0.4,0.4,0.7,0.4c0.3,0,0.5-0.1,0.7-0.4l3.2-4.4C21,8,21.1,7.7,20.9,7.4z M11.9,10.7H6.6c-0.2,0-0.3-0.1-0.3-0.3l0-3.2h2.1
	C8.7,7.2,9,7,9.1,6.7C9.3,6.4,9.3,6,9.1,5.8L5.8,1.4C5.7,1.1,5.4,1,5.1,1S4.6,1.1,4.4,1.4L1.2,5.8C1,6,0.9,6.4,1.1,6.7
	C1.2,7,1.5,7.2,1.9,7.2h2.1l0,4.7c0,0.6,0.5,1.2,1.2,1.2h6.8c0.6,0,1.2-0.5,1.2-1.2C13.1,11.2,12.5,10.7,11.9,10.7L11.9,10.7z"/>
</svg>
