[
	{
		"id": 0,
		"name": "Clare Broadbent",
		"title": "CEO",
		"thumb": "https://via.placeholder.com/250",
		"img": "https://via.placeholder.com/320",
		"desc": "Our CEO for nine years, Clare has built Cedar into a global multi-platform content and commercial provider for brands including British Airways, CLEA, Nikon and Tesco. As well as launching Cedar offices in Hong Kong and Cape Town, she has established an international sales network and commercial partnerships in over 20 regions, giving her unparalleled experience in monetising content and delivering owned-media strategies and portfolios. Clare was Chairman of the CMA 2013-14 and now sits on the CMA board and management team. She regularly runs to work from her home in south east London.",
		"email": "clare.broadbent@cedarcom.co.uk"
	},
	{
		"id": 1,
		"name": "Stuart Purcell",
		"title": "Creative director",
		"thumb": "https://via.placeholder.com/250",
		"img": "https://via.placeholder.com/320",
		"desc": "Stuart oversees all our creative direction and design output, especially for new projects, resulting in award-winning launches for <em>High Life</em> and <em>Business Life</em> for British Airways; winning business from many global brands, and consistent industry award nominations across our portfolio. He began in fashion design and was group art editor at Reed Business Information and PPA designer of the year two years’ running before joining Cedar in 1999. Stuart has been a judge on all the major industry award panels, spoken at the PPA conference, and judged the Harpers Wine + Spirit Design Awards.",
		"email": "stuart.purcell@cedarcom.co.uk"
	},
	{
		"id": 2,
		"name": "Robin Barnes",
		"title": "Digital director",
		"thumb": "https://via.placeholder.com/250",
		"img": "https://via.placeholder.com/320",
		"desc": "Responsible for all our digital output, Robin has 20 years’ experience in this field and cut his first HTML code in 1997. He has been instrumental in transforming Cedar from a print-only publishing agency to a multi-channel content marketer. Robin has worked with a diverse range of B2C and B2B brands, such as British Airways, Tesco, BMW and BNP Paribas. He has an IDM Diploma in Direct and Interactive Marketing to add to his degree in biology. In his spare time he enjoys running and is co-owner of a running shop.",
		"email": "robin.barnes@cedarcom.co.uk"
	},
	{
		"id": 3,
		"name": "Maureen Rice",
		"title": "Editorial director",
		"thumb": "https://via.placeholder.com/250",
		"img": "https://via.placeholder.com/320",
		"desc": "Maureen is an award-winning editor and editorial director, with extensive experience in women’s newsstand magazines, national newspapers, international launches and content marketing. She has worked on glossies <em>InStyle</em>, <em>Marie Claire</em>, <em>You magazine</em> and <em>Psychologies</em> and national newspapers that span all markets, including <em>The Observer</em> and the <em>Daily Mail</em>. As editorial director she shapes strategic vision across our portfolio and has a wicked ability to sum up huge concepts in a single phrase.",
		"email": "maureen.rice@cedarcom.co.uk"
	},
	{
		"id": 4,
		"name": "Justine Daly",
		"title": "Commercial director",
		"thumb": "https://via.placeholder.com/250",
		"img": "https://via.placeholder.com/320",
		"desc": "Justine is responsible for maximising advertising revenue from our clients’ media assets. She has more than 20 years’ advertising sales experience, starting her career in national press and moving into the commercialisation of clients’ content marketing assets in 1994. She has overseen the transformation of a print-dominated sales team to one that excels in selling across all media channels delivering millions of pounds of ad revenue from digital, outdoor and TV advertisers.",
		"email": "justine.daly@cedarcom.co.uk"
	},
	{
		"id": 5,
		"name": "Chris Rayment",
		"title": "Insight and planning director",
		"thumb": "https://via.placeholder.com/250",
		"img": "https://via.placeholder.com/320",
		"desc": "Chris is an industry veteran who acquired 14 years of research and data experience before establishing Cedar’s insight and planning team. He has worked on some of the biggest UK brands, including Marks & Spencer, Sainsbury’s, Tesco and British Airways. Qualified by the Market Research Society and Institute of Direct and Digital Marketing, he brings a wealth of data and research-based skills to Cedar, with a remit to bolster understanding and usage of research and data across editorial, new business, account management and commercial teams.",
		"email": "chris.rayment@cedarcom.co.uk"
	},
	{
		"id": 6,
		"name": "Karen Huxley",
		"title": "Business and compliance director",
		"thumb": "https://via.placeholder.com/250",
		"img": "https://via.placeholder.com/320",
		"desc": "Responsible for ensuring that <em>The London Magazine</em> and <em>High Life Shop</em> deliver their respective client business objectives, Karen is also accountable for all areas of compliance and legal within Cedar. She has worked both client side and agency side across a number of b2c and b2b brands, such as British Airways, TUI, The Chartered Insurance Institute, Comair, Bank of Scotland and Liontrust. Currently completing a CILEx diploma in law, Karen works hard to avoid running, preferring to spend her spare time with friends and gin.",
		"email": "karen.huxley@cedarcom.co.uk"
	},
	{
		"id": 7,
		"name": "Christina Da Silva",
		"title": "Business director",
		"thumb": "https://via.placeholder.com/250",
		"img": "https://via.placeholder.com/320",
		"desc": "Christina has worked with some of the UK’s biggest retail brands including ASOS, Marks & Spencer and Boots, and is now responsible for the overall governance of the Tesco account. As lead content marketing agency for Tesco, Cedar has Christina’s wide range of talents to thank for overseeing the company’s strategic and execution elements for a multi-channel content ecosystem, which encompasses delivering always-on and campaign-based content for a number of on- and offline channels and content formats.",
		"email": "christina.dasilva@cedarcom.co.uk"
	},
	{
		"id": 8,
		"name": "Claire Clarke",
		"title": "Business director",
		"thumb": "https://via.placeholder.com/250",
		"img": "https://via.placeholder.com/320",
		"desc": "Claire is responsible for ensuring that all content produced within the British Airways-owned media portfolio aligns with BA’s marketing, commercial and customer objectives, is delivered on time, within budget and performs against agreed KPIs. She applies a strategic lens to the account and continually explores ways to maximise performance – she loves a spreadsheet! Her drive and tenacity has also helped us produce award-winning content for Marks & Spencer, Boots, Sainsbury’s, The Maybourne Hotel group and Chanel to name but a few. At weekends Claire swaps stilettos for work boots and her major house renovation.",
		"email": "claire.clarke@cedarcom.co.uk"
	},
	{
		"id": 9,
		"name": "Hannah Saunders",
		"title": "Managing partner, Hong Kong",
		"thumb": "https://via.placeholder.com/250",
		"img": "https://via.placeholder.com/320",
		"desc": "Hannah has worked at Cedar for more than eight years. She relocated from London to Hong Kong in February 2015, having led the winning pitch to produce the inflight content portfolio for Cathay Pacific and Dragonair. Overseeing the 30-strong Cedar Hong Kong team and content output, Hannah is responsible for driving growth. Previously business development director, she set up a Shanghai office in 2011 to launch China’s first customer magazine, in Mandarin, and led the pitch to produce the first regional edition of <em>High Life</em> in South Africa for BA franchisee, Comair. Hannah also acts as ‘pitch doctor’ in relaunch work for existing clients.",
		"email": "hannah.saunders@cedarcom.hk"
	},
	{
		"id": 10,
		"name": "James Mastin",
		"title": "Managing partner, Hong Kong",
		"thumb": "https://via.placeholder.com/250",
		"img": "https://via.placeholder.com/320",
		"desc": "With over 18 years of industry experience, James has worked at Cedar since 2007 in an account management and client service capacity where he had overall responsibility for a group of local and international clients. Along with Hannah Saunders, James was appointed as co-managing partner of Cedar Hong Kong in 2015 and relocated to Hong Kong to set-up the office in Quarry Bay on Hong Kong Island. He has previously managed Cedar’s office in China and spent extended periods of time in Shanghai.",
		"email": "james.mastin@cedarcom.hk"
	},
	{
		"id": 11,
		"name": "Mark Jones",
		"title": "Editorial director, Hong Kong",
		"thumb": "https://via.placeholder.com/250",
		"img": "https://via.placeholder.com/320",
		"desc": "Mark moved to Cedar to take over British Airways’ <em>High Life</em> in 1996 and has since launched or relaunched some 40 magazines, both online and in print. He is also editor of the Cathay Pacific magazine, <em>Discovery</em>. Mark is a prolific travel writer, for Cedar titles as well as <em>The Independent</em> and <em>The Financial Times</em>. He has won editing awards from the British Society of Magazine Editors and the Association of Publishing Agencies and was named AITO Travel Writer of the Year in 2013.",
		"email": "mark.jones@cedarcom.hk"
	},
	{
		"id": 12,
		"name": "Steve Ellul",
		"title": "Creative director, Hong Kong",
		"thumb": "https://via.placeholder.com/250",
		"img": "https://via.placeholder.com/320",
		"desc": "Steve has more than 20 years’ experience in publishing, graphic design and illustration. Educated at one of the UK’s top design colleges, Steve moved to Hong Kong in 1998 and has worked on some of Hong Kong’s most prestigious titles. The winner of multiple design awards, Steve also designs his own range of boutique clothing.",
		"email": "steve.ellul@cedarcom.hk"
	},
	{
		"id": 13,
		"name": "Helena Gavera",
		"title": "Managing director, South Africa",
		"thumb": "https://via.placeholder.com/250",
		"img": "https://via.placeholder.com/320",
		"desc": "Under Helena’s leadership the South African office has grown to provide content to five of the foremost blue-chip brands in South Africa. She had over 10 years’ experience of leading teams in the content marketing sector but started by studying languages at the University of Stellenbosch, before taking a postgraduate degree in translation and a diploma in journalism. She does yoga to relax and her current favourite hobby is singing.",
		"email": "helena.gavera@cedarcom.sa"
	},
	{
		"id": 14,
		"name": "Sue Disler",
		"title": "Head of digital, South Africa",
		"thumb": "https://via.placeholder.com/250",
		"img": "https://via.placeholder.com/320",
		"desc": "As head of digital, Sue works with editorial and digital teams to create and deliver high-quality, hardworking and effective multiple channel solutions for new and existing clients. With more than 20 years’ experience in print and digital advertising and marketing, she has worked across numerous brands, won awards, launched South Africa's first cyber novel, judged at the Loeries and Bookmark Awards, and is a regular trends contributor on Bizcommunity.com.",
		"email": "sue.disler@cedarcom.sa"
	},
	{
		"id": 15,
		"name": "Marc Backwell",
		"title": "Head of creative, South Africa",
		"thumb": "https://via.placeholder.com/250",
		"img": "https://via.placeholder.com/320",
		"desc": "Marc joined the team in September 2015. He started out in customer publishing at Cedar UK (then Premier Magazines) in the mid-1990s and headed up the design studio at Hardie Grant Magazines in Australia before returning to the UK to co-found Cream Publishing. Marc recently returned to Cape Town with his young family, having spent seven years in New Zealand as co-owner of a media agency, launching award-winning content across print, digital and social. He brings a wealth of international experience and understands the importance of a consistent design approach for cross-platform solutions.",
		"email": "marc.backwell@cedarcom.sa"
	}
]
